<?xml version="1.0" encoding="utf-8"?>
<!-- Generator: Adobe Illustrator 16.0.0, SVG Export Plug-In . SVG Version: 6.00 Build 0)  -->
<!DOCTYPE svg PUBLIC "-//W3C//DTD SVG 1.1//EN" "http://www.w3.org/Graphics/SVG/1.1/DTD/svg11.dtd">
<svg version="1.1" id="Layer_1" xmlns="http://www.w3.org/2000/svg" xmlns:xlink="http://www.w3.org/1999/xlink" x="0px" y="0px"
	 width="40.715px" height="43.385px" viewBox="-1 -2.454 40.715 43.385" enable-background="new -1 -2.454 40.715 43.385"
	 xml:space="preserve">
<g>
	<path stroke="#000000" stroke-width="2" stroke-miterlimit="10" d="M19.357,19.801L0,0v39.932h38.715V0L19.357,19.801z
		 M36.715,37.98H1.999V4.873l17.358,17.754L36.715,4.873V37.98z"/>
</g>
</svg>
