<?xml version="1.0" encoding="utf-8"?>
<!-- Generator: Adobe Illustrator 16.0.0, SVG Export Plug-In . SVG Version: 6.00 Build 0)  -->
<!DOCTYPE svg PUBLIC "-//W3C//DTD SVG 1.1//EN" "http://www.w3.org/Graphics/SVG/1.1/DTD/svg11.dtd">
<svg version="1.1" id="Layer_1" xmlns="http://www.w3.org/2000/svg" xmlns:xlink="http://www.w3.org/1999/xlink" x="0px" y="0px"
	 width="295.189px" height="58.039px" viewBox="0 0 295.189 58.039" enable-background="new 0 0 295.189 58.039"
	 xml:space="preserve">
<g>
	<g>
		<g>
			<g>
				<defs>
					<rect id="SVGID_1_" width="295.189" height="58.039"/>
				</defs>
				<clipPath id="SVGID_2_">
					<use xlink:href="#SVGID_1_"  overflow="visible"/>
				</clipPath>
				<path clip-path="url(#SVGID_2_)" fill="#E71200" d="M31.219,3.007h9.666v31.119c0,7.834-2.572,14.165-6.767,18.348
					c5.59-3.994,9.142-11.148,9.142-20.371V0.983H31.219V3.007z"/>
				<path clip-path="url(#SVGID_2_)" fill="#E71200" d="M12.042,35.191c0,6.224,3.5,9.909,8.401,9.909
					c2.614,0,4.822-1.057,6.32-2.98c-1.155,0.623-2.486,0.957-3.945,0.957c-4.901,0-8.401-3.686-8.401-9.909V0.983H2.375v2.023
					h9.666V35.191z"/>
				<path clip-path="url(#SVGID_2_)" fill="#E71200" d="M70.347,0.983H52.215v2.023h15.757c10.15,0,17.852,7.125,17.852,18.59
					c0,5.563-1.897,10.196-5.044,13.457c4.542-3.203,7.419-8.634,7.419-15.48C88.199,8.108,80.498,0.983,70.347,0.983"/>
				<path clip-path="url(#SVGID_2_)" fill="#E71200" d="M64.256,25.961v-10.67h-2.375v12.693h6.16c1.992,0,3.56-0.897,4.512-2.425
					c-0.641,0.259-1.355,0.402-2.136,0.402H64.256z"/>
				<rect x="61.881" y="40.268" clip-path="url(#SVGID_2_)" fill="#E71200" width="2.375" height="14.765"/>
				<polygon clip-path="url(#SVGID_2_)" fill="#E71200" points="126.289,56.016 127.817,56.016 138.035,31.616 137.273,29.787 				
					"/>
				<polygon clip-path="url(#SVGID_2_)" fill="#E71200" points="160.185,3.007 171.926,3.007 153.584,56.016 155.26,56.016 
					174.302,0.983 160.862,0.983 				"/>
				<polygon clip-path="url(#SVGID_2_)" fill="#E71200" points="124.672,28.967 126.325,24.782 118.366,0.983 104.925,0.983 
					105.625,3.007 115.991,3.007 				"/>
				<polygon clip-path="url(#SVGID_2_)" fill="#E71200" points="149.805,28.967 151.26,24.613 141.539,0 137.689,0 136.889,2.023 
					139.164,2.023 				"/>
				<polygon clip-path="url(#SVGID_2_)" fill="#E71200" points="191.797,34.945 189.421,34.945 189.421,44.363 210.283,44.363 
					210.283,55.033 212.659,55.033 212.659,42.34 191.797,42.34 				"/>
				<polygon clip-path="url(#SVGID_2_)" fill="#E71200" points="189.421,23.152 203.703,23.152 203.703,32.922 206.079,32.922 
					206.079,21.129 191.797,21.129 191.797,15.7 189.421,15.7 				"/>
				<polygon clip-path="url(#SVGID_2_)" fill="#E71200" points="209.444,13.677 211.82,13.677 211.82,0.983 179.756,0.983 
					179.756,3.006 209.444,3.006 				"/>
				<path clip-path="url(#SVGID_2_)" fill="#E71200" d="M248.784,12.916l-5.717,5.116c0.015,0.023,0.028,0.043,0.041,0.067
					l8.052-7.206C248.5,4.668,243.387,0,235.337,0c-4.936,0-9.14,1.759-12.03,4.82c2.642-1.794,5.939-2.797,9.654-2.797
					C241.012,2.023,246.124,6.691,248.784,12.916"/>
				<path clip-path="url(#SVGID_2_)" fill="#E71200" d="M233.171,45.674c2.445,0,3.918-0.76,4.485-2.272
					c-0.599,0.165-1.301,0.249-2.109,0.249c-5.182,0-8.052-3.441-10.291-6.961l-2.342,2.077
					C225.15,42.269,228.017,45.674,233.171,45.674"/>
				<path clip-path="url(#SVGID_2_)" fill="#E71200" d="M240.659,22.849l-5.321-2.62c-2.87-1.393-3.991-2.375-3.991-4.423
					c0-0.473,0.083-0.875,0.205-1.242c-1.55,0.373-2.581,1.385-2.581,3.265c0,2.048,1.121,3.031,3.991,4.423l5.321,2.62
					c7.699,3.768,11.831,8.354,11.831,16.297c0,5-1.651,9.009-4.373,11.871c4.119-2.825,6.749-7.572,6.749-13.894
					C252.49,31.203,248.358,26.616,240.659,22.849"/>
				<rect x="278.951" y="15.7" clip-path="url(#SVGID_2_)" fill="#E71200" width="2.376" height="39.333"/>
				<polygon clip-path="url(#SVGID_2_)" fill="#E71200" points="295.19,0.983 255.424,0.983 255.424,3.006 292.814,3.006 
					292.814,13.676 295.19,13.676 				"/>
				<path clip-path="url(#SVGID_2_)" fill="#00F64E" d="M2.375,32.103V3.006H0v31.119c0,14.496,8.681,23.914,20.442,23.914
					c5.372,0,10.109-2.009,13.676-5.566c-3.195,2.283-7.049,3.542-11.301,3.542C11.057,56.015,2.375,46.597,2.375,32.103"/>
				<path clip-path="url(#SVGID_2_)" fill="#00F64E" d="M31.219,33.168V3.007h-2.375v32.184c0,2.905-0.77,5.247-2.081,6.93
					C29.488,40.651,31.219,37.539,31.219,33.168"/>
				<path clip-path="url(#SVGID_2_)" fill="#F44CE4" d="M40.884,3.007h-9.666v30.161c0,4.371-1.73,7.483-4.456,8.953
					c-1.498,1.922-3.706,2.98-6.32,2.98c-4.901,0-8.401-3.686-8.401-9.909V3.007H2.375v29.096c0,14.495,8.681,23.913,20.443,23.913
					c4.251,0,8.106-1.259,11.3-3.542c4.195-4.183,6.766-10.514,6.766-18.348V3.007z"/>
				<path clip-path="url(#SVGID_2_)" fill="#00F64E" d="M70.417,13.268h-6.161v2.023h3.786c3.36,0,5.53,2.539,5.53,6.306
					c0,1.567-0.365,2.912-1.019,3.963c2.114-0.856,3.395-3.033,3.395-5.986C75.948,15.806,73.777,13.268,70.417,13.268"/>
				<polygon clip-path="url(#SVGID_2_)" fill="#00F64E" points="52.215,3.007 49.84,3.007 49.84,57.057 61.881,57.057 
					61.881,55.033 52.215,55.033 				"/>
				<path clip-path="url(#SVGID_2_)" fill="#00F64E" d="M64.256,38.245v2.023h3.715c5.118,0,9.61-1.898,12.809-5.214
					c-2.901,2.046-6.476,3.191-10.433,3.191H64.256z"/>
				<path clip-path="url(#SVGID_2_)" fill="#F44CE4" d="M67.971,3.007H52.215v52.026h9.666V40.268h2.375v-2.023h6.091
					c3.957,0,7.532-1.145,10.433-3.191c3.147-3.262,5.044-7.894,5.044-13.457C85.824,10.132,78.123,3.007,67.971,3.007
					 M72.553,25.559c-0.952,1.528-2.52,2.425-4.512,2.425h-6.16V15.291h2.375v-2.024h6.161c3.36,0,5.531,2.539,5.531,6.306
					C75.948,22.526,74.667,24.703,72.553,25.559"/>
				<polygon clip-path="url(#SVGID_2_)" fill="#00F64E" points="160.185,3.007 158.486,3.007 151.26,24.613 152.18,26.944 				"/>
				<polygon clip-path="url(#SVGID_2_)" fill="#00F64E" points="136.889,2.023 135.313,2.023 126.325,24.782 127.047,26.943 				"/>
				<polygon clip-path="url(#SVGID_2_)" fill="#00F64E" points="105.625,3.007 102.549,3.007 121.591,58.039 125.442,58.039 
					126.289,56.016 123.967,56.016 				"/>
				<polygon clip-path="url(#SVGID_2_)" fill="#00F64E" points="139.648,27.763 138.035,31.617 149.035,58.039 152.884,58.039 
					153.585,56.016 151.411,56.016 				"/>
				<polygon clip-path="url(#SVGID_2_)" fill="#F44CE4" points="160.185,3.007 152.18,26.944 151.26,24.613 149.804,28.967 
					139.164,2.023 136.89,2.023 127.048,26.944 126.325,24.782 124.672,28.967 115.991,3.007 105.625,3.007 123.967,56.016 
					126.289,56.016 137.272,29.786 138.035,31.616 139.648,27.763 151.411,56.016 153.584,56.016 171.926,3.007 				"/>
				<rect x="191.797" y="32.922" clip-path="url(#SVGID_2_)" fill="#00F64E" width="11.905" height="2.023"/>
				<rect x="191.797" y="13.677" clip-path="url(#SVGID_2_)" fill="#00F64E" width="17.646" height="2.023"/>
				<polygon clip-path="url(#SVGID_2_)" fill="#00F64E" points="179.756,3.007 177.38,3.007 177.38,57.057 210.283,57.057 
					210.283,55.033 179.756,55.033 				"/>
				<polygon clip-path="url(#SVGID_2_)" fill="#F44CE4" points="189.421,44.363 189.421,34.945 191.797,34.945 191.797,32.922 
					203.703,32.922 203.703,23.152 189.421,23.152 189.421,15.7 191.797,15.7 191.797,13.676 209.443,13.676 209.443,3.007 
					179.756,3.007 179.756,55.033 210.283,55.033 210.283,44.363 				"/>
				<path clip-path="url(#SVGID_2_)" fill="#00F64E" d="M235.478,12.366c-1.923,0-3.416,0.657-3.927,2.197
					c0.475-0.114,0.992-0.174,1.551-0.174c3.5,0,5.529,2.13,7.631,5.733l2.335-2.09C240.982,14.472,238.955,12.366,235.478,12.366"
					/>
				<path clip-path="url(#SVGID_2_)" fill="#00F64E" d="M240.308,39.719c0-2.538-1.471-3.357-4.69-4.995l-4.761-2.457
					c-7.352-3.767-11.692-8.681-11.692-16.297c0-4.58,1.539-8.392,4.143-11.149c-4.029,2.737-6.519,7.336-6.519,13.172
					c0,7.617,4.341,12.531,11.692,16.297l4.761,2.457c3.22,1.638,4.69,2.457,4.69,4.995c0,0.631-0.095,1.181-0.274,1.66
					C239.444,42.909,240.308,41.682,240.308,39.719"/>
				<path clip-path="url(#SVGID_2_)" fill="#00F64E" d="M217.136,43.896l5.778-5.128c-0.011-0.018-0.023-0.037-0.035-0.055
					l-8.119,7.206c3.29,7.29,9.939,12.121,18.41,12.121c5.051,0,9.495-1.767,12.569-4.999c-2.817,1.933-6.326,2.975-10.193,2.975
					C227.076,56.015,220.426,51.184,217.136,43.896"/>
				<path clip-path="url(#SVGID_2_)" fill="#F44CE4" d="M238.283,24.872l-5.321-2.62c-2.87-1.393-3.991-2.375-3.991-4.423
					c0-1.881,1.031-2.893,2.581-3.266c0.51-1.54,2.004-2.197,3.926-2.197c3.478,0,5.504,2.106,7.59,5.666l5.717-5.116
					c-2.66-6.225-7.772-10.893-15.822-10.893c-3.715,0-7.013,1.003-9.654,2.797c-2.603,2.758-4.142,6.57-4.142,11.15
					c0,7.616,4.341,12.53,11.69,16.297l4.762,2.457c3.221,1.637,4.689,2.457,4.689,4.995c0,1.963-0.864,3.19-2.649,3.683
					c-0.569,1.512-2.041,2.272-4.486,2.272c-5.155,0-8.021-3.406-10.256-6.907l-5.78,5.128c3.291,7.289,9.941,12.121,18.412,12.121
					c3.867,0,7.375-1.043,10.193-2.976c2.722-2.862,4.373-6.871,4.373-11.871C250.114,33.226,245.982,28.64,238.283,24.872"/>
				<polygon clip-path="url(#SVGID_2_)" fill="#00F64E" points="269.287,13.677 255.425,13.677 255.425,3.006 253.049,3.006 
					253.049,15.7 266.911,15.7 266.911,57.057 278.952,57.057 278.952,55.033 269.287,55.033 				"/>
				<rect x="281.327" y="13.677" clip-path="url(#SVGID_2_)" fill="#00F64E" width="11.486" height="2.023"/>
				<polygon clip-path="url(#SVGID_2_)" fill="#F44CE4" points="255.425,3.007 255.425,13.677 269.286,13.677 269.286,55.033 
					278.951,55.033 278.951,15.7 281.327,15.7 281.327,13.677 292.814,13.677 292.814,3.007 				"/>
			</g>
		</g>
	</g>
</g>
</svg>
